<svg xmlns="http://www.w3.org/2000/svg" viewBox="0 0 18 12" width="18" height="12">
	<style>
		tspan { white-space:pre }
		.shp0 { fill: #f9f9f9 } 
	</style>
	<g id="gallery">
		<path id="-e- back icon" class="shp0" d="M18 5L3.83 5L7.41 1.41L6 0L0 6L6 12L7.41 10.59L3.83 7L18 7L18 5Z" />
	</g>
</svg>