<svg xmlns="http://www.w3.org/2000/svg" viewBox="0 0 14 14" width="14" height="14">
	<style>
		tspan { white-space:pre }
		.shp0 { fill: #ffffff } 
	</style>
	<g id="add category">
		<g id="button">
			<path id="-e- add icon" class="shp0" d="M14 8L8 8L8 14L6 14L6 8L0 8L0 6L6 6L6 0L8 0L8 6L14 6L14 8Z" />
		</g>
	</g>
</svg>