<svg xmlns="http://www.w3.org/2000/svg" viewBox="0 0 46 42" width="46" height="42">
	<style>
		tspan { white-space:pre }
		.shp0 { fill: #aaaaaa } 
	</style>
	<g id="gallery">
		<g id="add images">
			<path id="-e- Shape 6" class="shp0" d="M6 6L6 0L10 0L10 6L16 6L16 10L10 10L10 16L6 16L6 10L0 10L0 6L6 6ZM12 18L12 12L18 12L18 6L32 6L35.66 10L42 10C44.2 10 46 11.8 46 14L46 38C46 40.2 44.2 42 42 42L10 42C7.8 42 6 40.2 6 38L6 18L12 18ZM26 36C31.52 36 36 31.52 36 26C36 20.48 31.52 16 26 16C20.48 16 16 20.48 16 26C16 31.52 20.48 36 26 36ZM19.6 26C19.6 29.54 22.46 32.4 26 32.4C29.54 32.4 32.4 29.54 32.4 26C32.4 22.46 29.54 19.6 26 19.6C22.46 19.6 19.6 22.46 19.6 26Z" />
		</g>
	</g>
</svg>