<svg xmlns="http://www.w3.org/2000/svg" viewBox="0 0 16 24" width="16" height="24">
	<style>
		tspan { white-space:pre }
		.shp0 { fill: #f9f9f9 } 
	</style>
	<g id="open image">
		<path id="-e- next icon" class="shp0" d="M3.77 0L0.92 2.82L10.18 12L0.92 21.18L3.77 24L15.9 12L3.77 0Z" />
	</g>
</svg>