<svg xmlns="http://www.w3.org/2000/svg" viewBox="0 0 15 24" width="15" height="24">
	<style>
		tspan { white-space:pre }
		.shp0 { fill: #f9f9f9 } 
	</style>
	<g id="open image">
		<path id="-e- prev icon" class="shp0" d="M12.16 24L15.01 21.18L5.74 12L15.01 2.82L12.16 0L0 12L12.16 24Z" />
	</g>
</svg>